[
  {
    "ano": 2019,
    "studies": [
      {
        "excerpt": "Lorem ipsum dolor sit amet, consectetuer adipiscing elit. Aenean commodo ligula eget dolor. Aenean massa",
        "link": {
          "icon": "get_app",
          "title": "File",
          "text": "Descargar",
          "url": "#"
        },
        "title": "Nombre del archivo"
      },
      {
        "excerpt": "Lorem ipsum dolor sit amet, consectetuer adipiscing elit. Aenean commodo ligula eget dolor. Aenean massa",
        "link": {
          "icon": "get_app",
          "title": "File",
          "text": "Descargar",
          "url": "#"
        },
        "title": "Nombre del archivo"
      },
      {
        "excerpt": "Lorem ipsum dolor sit amet, consectetuer adipiscing elit. Aenean commodo ligula eget dolor. Aenean massa",
        "link": {
          "icon": "get_app",
          "title": "File",
          "text": "Descargar",
          "url": "#"
        },
        "title": "Nombre del archivo"
      },
      {
        "excerpt": "Lorem ipsum dolor sit amet, consectetuer adipiscing elit. Aenean commodo ligula eget dolor. Aenean massa",
        "link": {
          "icon": "get_app",
          "title": "File",
          "text": "Descargar",
          "url": "#"
        },
        "title": "Nombre del archivo"
      },
      {
        "excerpt": "Lorem ipsum dolor sit amet, consectetuer adipiscing elit. Aenean commodo ligula eget dolor. Aenean massa",
        "link": {
          "icon": "get_app",
          "title": "File",
          "text": "Descargar",
          "url": "#"
        },
        "title": "Nombre del archivo"
      },
      {
        "excerpt": "Lorem ipsum dolor sit amet, consectetuer adipiscing elit. Aenean commodo ligula eget dolor. Aenean massa",
        "link": {
          "icon": "get_app",
          "title": "File",
          "text": "Descargar",
          "url": "#"
        },
        "title": "Nombre del archivo"
      },
      {
        "excerpt": "Lorem ipsum dolor sit amet, consectetuer adipiscing elit. Aenean commodo ligula eget dolor. Aenean massa",
        "link": {
          "icon": "get_app",
          "title": "File",
          "text": "Descargar",
          "url": "#"
        },
        "title": "Nombre del archivo"
      },
      {
        "excerpt": "Lorem ipsum dolor sit amet, consectetuer adipiscing elit. Aenean commodo ligula eget dolor. Aenean massa",
        "link": {
          "icon": "get_app",
          "title": "File",
          "text": "Descargar",
          "url": "#"
        },
        "title": "Nombre del archivo"
      }
    ]
  },
  {
    "ano": 2018,
    "studies": [
      {
        "excerpt": "Lorem ipsum dolor sit amet, consectetuer adipiscing elit. Aenean commodo ligula eget dolor. Aenean massa",
        "link": {
          "icon": "get_app",
          "title": "File",
          "text": "Descargar",
          "url": "#"
        },
        "title": "Nombre del archivo"
      },
      {
        "excerpt": "Lorem ipsum dolor sit amet, consectetuer adipiscing elit. Aenean commodo ligula eget dolor. Aenean massa",
        "link": {
          "icon": "get_app",
          "title": "File",
          "text": "Descargar",
          "url": "#"
        },
        "title": "Nombre del archivo"
      },
      {
        "excerpt": "Lorem ipsum dolor sit amet, consectetuer adipiscing elit. Aenean commodo ligula eget dolor. Aenean massa",
        "link": {
          "icon": "get_app",
          "title": "File",
          "text": "Descargar",
          "url": "#"
        },
        "title": "Nombre del archivo"
      },
      {
        "excerpt": "Lorem ipsum dolor sit amet, consectetuer adipiscing elit. Aenean commodo ligula eget dolor. Aenean massa",
        "link": {
          "icon": "get_app",
          "title": "File",
          "text": "Descargar",
          "url": "#"
        },
        "title": "Nombre del archivo"
      },
      {
        "excerpt": "Lorem ipsum dolor sit amet, consectetuer adipiscing elit. Aenean commodo ligula eget dolor. Aenean massa",
        "link": {
          "icon": "get_app",
          "title": "File",
          "text": "Descargar",
          "url": "#"
        },
        "title": "Nombre del archivo"
      },
      {
        "excerpt": "Lorem ipsum dolor sit amet, consectetuer adipiscing elit. Aenean commodo ligula eget dolor. Aenean massa",
        "link": {
          "icon": "get_app",
          "title": "File",
          "text": "Descargar",
          "url": "#"
        },
        "title": "Nombre del archivo"
      },
      {
        "excerpt": "Lorem ipsum dolor sit amet, consectetuer adipiscing elit. Aenean commodo ligula eget dolor. Aenean massa",
        "link": {
          "icon": "get_app",
          "title": "File",
          "text": "Descargar",
          "url": "#"
        },
        "title": "Nombre del archivo"
      },
      {
        "excerpt": "Lorem ipsum dolor sit amet, consectetuer adipiscing elit. Aenean commodo ligula eget dolor. Aenean massa",
        "link": {
          "icon": "get_app",
          "title": "File",
          "text": "Descargar",
          "url": "#"
        },
        "title": "Nombre del archivo"
      }
    ]
  },
  {
    "ano": 2017,
    "studies": [
      {
        "excerpt": "Lorem ipsum dolor sit amet, consectetuer adipiscing elit. Aenean commodo ligula eget dolor. Aenean massa",
        "link": {
          "icon": "get_app",
          "title": "File",
          "text": "Descargar",
          "url": "#"
        },
        "title": "Nombre del archivo"
      },
      {
        "excerpt": "Lorem ipsum dolor sit amet, consectetuer adipiscing elit. Aenean commodo ligula eget dolor. Aenean massa",
        "link": {
          "icon": "get_app",
          "title": "File",
          "text": "Descargar",
          "url": "#"
        },
        "title": "Nombre del archivo"
      },
      {
        "excerpt": "Lorem ipsum dolor sit amet, consectetuer adipiscing elit. Aenean commodo ligula eget dolor. Aenean massa",
        "link": {
          "icon": "get_app",
          "title": "File",
          "text": "Descargar",
          "url": "#"
        },
        "title": "Nombre del archivo"
      },
      {
        "excerpt": "Lorem ipsum dolor sit amet, consectetuer adipiscing elit. Aenean commodo ligula eget dolor. Aenean massa",
        "link": {
          "icon": "get_app",
          "title": "File",
          "text": "Descargar",
          "url": "#"
        },
        "title": "Nombre del archivo"
      },
      {
        "excerpt": "Lorem ipsum dolor sit amet, consectetuer adipiscing elit. Aenean commodo ligula eget dolor. Aenean massa",
        "link": {
          "icon": "get_app",
          "title": "File",
          "text": "Descargar",
          "url": "#"
        },
        "title": "Nombre del archivo"
      },
      {
        "excerpt": "Lorem ipsum dolor sit amet, consectetuer adipiscing elit. Aenean commodo ligula eget dolor. Aenean massa",
        "link": {
          "icon": "get_app",
          "title": "File",
          "text": "Descargar",
          "url": "#"
        },
        "title": "Nombre del archivo"
      },
      {
        "excerpt": "Lorem ipsum dolor sit amet, consectetuer adipiscing elit. Aenean commodo ligula eget dolor. Aenean massa",
        "link": {
          "icon": "get_app",
          "title": "File",
          "text": "Descargar",
          "url": "#"
        },
        "title": "Nombre del archivo"
      },
      {
        "excerpt": "Lorem ipsum dolor sit amet, consectetuer adipiscing elit. Aenean commodo ligula eget dolor. Aenean massa",
        "link": {
          "icon": "get_app",
          "title": "File",
          "text": "Descargar",
          "url": "#"
        },
        "title": "Nombre del archivo"
      }
    ]
  },
  {
    "ano": 2016,
    "studies": [
      {
        "excerpt": "Lorem ipsum dolor sit amet, consectetuer adipiscing elit. Aenean commodo ligula eget dolor. Aenean massa",
        "link": {
          "icon": "get_app",
          "title": "File",
          "text": "Descargar",
          "url": "#"
        },
        "title": "Nombre del archivo"
      },
      {
        "excerpt": "Lorem ipsum dolor sit amet, consectetuer adipiscing elit. Aenean commodo ligula eget dolor. Aenean massa",
        "link": {
          "icon": "get_app",
          "title": "File",
          "text": "Descargar",
          "url": "#"
        },
        "title": "Nombre del archivo"
      },
      {
        "excerpt": "Lorem ipsum dolor sit amet, consectetuer adipiscing elit. Aenean commodo ligula eget dolor. Aenean massa",
        "link": {
          "icon": "get_app",
          "title": "File",
          "text": "Descargar",
          "url": "#"
        },
        "title": "Nombre del archivo"
      },
      {
        "excerpt": "Lorem ipsum dolor sit amet, consectetuer adipiscing elit. Aenean commodo ligula eget dolor. Aenean massa",
        "link": {
          "icon": "get_app",
          "title": "File",
          "text": "Descargar",
          "url": "#"
        },
        "title": "Nombre del archivo"
      },
      {
        "excerpt": "Lorem ipsum dolor sit amet, consectetuer adipiscing elit. Aenean commodo ligula eget dolor. Aenean massa",
        "link": {
          "icon": "get_app",
          "title": "File",
          "text": "Descargar",
          "url": "#"
        },
        "title": "Nombre del archivo"
      },
      {
        "excerpt": "Lorem ipsum dolor sit amet, consectetuer adipiscing elit. Aenean commodo ligula eget dolor. Aenean massa",
        "link": {
          "icon": "get_app",
          "title": "File",
          "text": "Descargar",
          "url": "#"
        },
        "title": "Nombre del archivo"
      },
      {
        "excerpt": "Lorem ipsum dolor sit amet, consectetuer adipiscing elit. Aenean commodo ligula eget dolor. Aenean massa",
        "link": {
          "icon": "get_app",
          "title": "File",
          "text": "Descargar",
          "url": "#"
        },
        "title": "Nombre del archivo"
      },
      {
        "excerpt": "Lorem ipsum dolor sit amet, consectetuer adipiscing elit. Aenean commodo ligula eget dolor. Aenean massa",
        "link": {
          "icon": "get_app",
          "title": "File",
          "text": "Descargar",
          "url": "#"
        },
        "title": "Nombre del archivo"
      }
    ]
  },
  {
    "ano": 2015,
    "studies": [
      {
        "excerpt": "Lorem ipsum dolor sit amet, consectetuer adipiscing elit. Aenean commodo ligula eget dolor. Aenean massa",
        "link": {
          "icon": "get_app",
          "title": "File",
          "text": "Descargar",
          "url": "#"
        },
        "title": "Nombre del archivo"
      },
      {
        "excerpt": "Lorem ipsum dolor sit amet, consectetuer adipiscing elit. Aenean commodo ligula eget dolor. Aenean massa",
        "link": {
          "icon": "get_app",
          "title": "File",
          "text": "Descargar",
          "url": "#"
        },
        "title": "Nombre del archivo"
      },
      {
        "excerpt": "Lorem ipsum dolor sit amet, consectetuer adipiscing elit. Aenean commodo ligula eget dolor. Aenean massa",
        "link": {
          "icon": "get_app",
          "title": "File",
          "text": "Descargar",
          "url": "#"
        },
        "title": "Nombre del archivo"
      },
      {
        "excerpt": "Lorem ipsum dolor sit amet, consectetuer adipiscing elit. Aenean commodo ligula eget dolor. Aenean massa",
        "link": {
          "icon": "get_app",
          "title": "File",
          "text": "Descargar",
          "url": "#"
        },
        "title": "Nombre del archivo"
      },
      {
        "excerpt": "Lorem ipsum dolor sit amet, consectetuer adipiscing elit. Aenean commodo ligula eget dolor. Aenean massa",
        "link": {
          "icon": "get_app",
          "title": "File",
          "text": "Descargar",
          "url": "#"
        },
        "title": "Nombre del archivo"
      },
      {
        "excerpt": "Lorem ipsum dolor sit amet, consectetuer adipiscing elit. Aenean commodo ligula eget dolor. Aenean massa",
        "link": {
          "icon": "get_app",
          "title": "File",
          "text": "Descargar",
          "url": "#"
        },
        "title": "Nombre del archivo"
      },
      {
        "excerpt": "Lorem ipsum dolor sit amet, consectetuer adipiscing elit. Aenean commodo ligula eget dolor. Aenean massa",
        "link": {
          "icon": "get_app",
          "title": "File",
          "text": "Descargar",
          "url": "#"
        },
        "title": "Nombre del archivo"
      },
      {
        "excerpt": "Lorem ipsum dolor sit amet, consectetuer adipiscing elit. Aenean commodo ligula eget dolor. Aenean massa",
        "link": {
          "icon": "get_app",
          "title": "File",
          "text": "Descargar",
          "url": "#"
        },
        "title": "Nombre del archivo"
      }
    ]
  }
]
