{
  "horizon_header": {
    "active": true,
    "title": "Preguntas frecuentes",
    "section_breadcrumbs": {
      "active": true,
      "breadcrumbs": [
        {
          "text": "Repositorio",
          "title": "Repositorio",
          "url": "/"
        },
        {
          "text": "Preguntas frecuentes",
          "title": "Preguntas frecuentes",
          "url": "/faq"
        }
      ]
    }
  },
  "horizon_filters": {
    "active": true,
    "title": "",
    "excerpt": "",
    "section_search": {
      "active": true,
      "label": "",
      "placeholder": "Buscar por",
      "icon": "search",
      "name": "search_filter"
    },
    "section_filters": {
      "active": true,
      "title": "Filtrar por",
      "excerpt": ""
    },
    "section_button": {
      "active": true,
      "icon": "tune",
      "text": "Filtrar",
      "title": "Filtro"
    }
  },
  "horizon_faqs": {
    "active": true,
    "title": "",
    "excerpt": ""
  }
}
